…
```
## List of 2
##  $ lambda: num [1:2000, 1:224] 0.0059 0.00352 0.00514 0.00436 0.00558 ...
##  $ mu    : num [1:2000, 1:224] 169 284 194 229 179 ...
```


```r
predresults <- preddata %>%
  mutate(lambda=as.list(as.data.frame(pred$lambda)))
predresults
```

```
## # A tibble: 224 x 3
##    temps   day lambda       
##    <int> <int> <named list> 
##  1     1     1 <dbl [2,000]>
##  2     1     2 <dbl [2,000]>
##  3     1     3 <dbl [2,000]>
##  4     1     4 <dbl [2,000]>
##  5     1     5 <dbl [2,000]>
##  6     1     6 <dbl [2,000]>
##  7     1     7 <dbl [2,000]>
##  8     1     8 <dbl [2,000]>
##  9     1     9 <dbl [2,000]>
## 10     1    10 <dbl [2,000]>
## # ... with 214 more rows
```


```r
predresults <- predresults %>%
  mutate(probs=map2(day, lambda, ~ pexp(.x, .y)),
         mu=map_dbl(probs, mean),
         lower=map_dbl(probs, ~ HPDI(.)[1] %>% unlist()),
         upper=map_dbl(probs, ~ HPDI(.)[2]) %>% unlist())
predresults
```

```
## # A tibble: 224 x 7
##    temps   day lambda        probs              mu   lower   upper
##    <int> <int> <named list>  <list>          <dbl>   <dbl>   <dbl>
##  1     1     1 <dbl [2,000]> <dbl [2,000]> 0.00455 0.00180 0.00679
##  2     1     2 <dbl [2,000]> <dbl [2,000]> 0.00907 0.00360 0.0135 
##  3     1     3 <dbl [2,000]> <dbl [2,000]> 0.0136  0.00539 0.0202 
##  4     1     4 <dbl [2,000]> <dbl [2,000]> 0.0180  0.00719 0.0269 
##  5     1     5 <dbl [2,000]> <dbl [2,000]> 0.0225  0.00897 0.0335 
##  6     1     6 <dbl [2,000]> <dbl [2,000]> 0.0269  0.0108  0.0401 
##  7     1     7 <dbl [2,000]> <dbl [2,000]> 0.0313  0.0125  0.0466 
##  8     1     8 <dbl [2,000]> <dbl [2,000]> 0.0357  0.0143  0.0531 
##  9     1     9 <dbl [2,000]> <dbl [2,000]> 0.0401  0.0161  0.0595 
## 10     1    10 <dbl [2,000]> <dbl [2,000]> 0.0444  0.0179  0.0659 
## # ... with 214 more rows
```
…
