…
```r
germ
```

```
## # A tibble: 3,840 x 6
##    pops  temps total_seeds  germ   day cumulative_germ
##    <chr> <dbl>       <dbl> <dbl> <dbl>           <dbl>
##  1 CAAM      5          50     0     1               0
##  2 CAAM      5          50     0     2               0
##  3 CAAM      5          50     0     3               0
##  4 CAAM      5          50     0     4               0
##  5 CAAM      5          50     0     5               0
##  6 CAAM      5          50     0     6               0
##  7 CAAM      5          50     0     7               0
##  8 CAAM      5          50     0     8               0
##  9 CAAM      5          50     0     9               0
## 10 CAAM      5          50     0    10               0
## # ... with 3,830 more rows
```
…
```
## # A tibble: 9,120 x 5
## # Groups:   pops, temps [192]
##    pops  temps    id  germ   day
##    <chr> <dbl> <int> <dbl> <dbl>
##  1 CAAM      5     1     0    28
##  2 CAAM      5     2     0    28
##  3 CAAM      5     3     0    28
##  4 CAAM      5     4     0    28
##  5 CAAM      5     5     0    28
##  6 CAAM      5     6     0    28
##  7 CAAM      5     7     0    28
##  8 CAAM      5     8     0    28
##  9 CAAM      5     9     0    28
## 10 CAAM      5    10     0    28
## # ... with 9,110 more rows
```

```r
germ.stdi <- germone %>% filter(pops=="STDI") %>% select(-pops)
```

```
## Adding missing grouping variables: `pops`
```

```r
germ.stdi
```

```
## # A tibble: 396 x 5
## # Groups:   pops, temps [8]
##    pops  temps    id  germ   day
##    <chr> <dbl> <int> <dbl> <dbl>
##  1 STDI      5     1     1    24
##  2 STDI      5     2     0    28
##  3 STDI      5     3     0    28
##  4 STDI      5     4     0    28
##  5 STDI      5     5     0    28
##  6 STDI      5     6     0    28
##  7 STDI      5     7     0    28
##  8 STDI      5     8     0    28
##  9 STDI      5     9     0    28
## 10 STDI      5    10     0    28
## # ... with 386 more rows
```
…
The above represent log(mean time to germination)

#### m1.2: brms censoring model

need to set up indicator for censoring.

```r
germ.stdi <- germ.stdi %>%
  mutate(cens=ifelse(germ==0, "right", "none"),
         tempsc=as.character(temps) %>% str_pad(width=2, pad="0"))
germ.stdi
```

```
## # A tibble: 396 x 7
## # Groups:   pops, temps [8]
##    pops  temps    id  germ   day cens  tempsc
##    <chr> <dbl> <int> <dbl> <dbl> <chr> <chr> 
##  1 STDI      5     1     1    24 none  05    
##  2 STDI      5     2     0    28 right 05    
##  3 STDI      5     3     0    28 right 05    
##  4 STDI      5     4     0    28 right 05    
##  5 STDI      5     5     0    28 right 05    
##  6 STDI      5     6     0    28 right 05    
##  7 STDI      5     7     0    28 right 05    
##  8 STDI      5     8     0    28 right 05    
##  9 STDI      5     9     0    28 right 05    
## 10 STDI      5    10     0    28 right 05    
## # ... with 386 more rows
```
…
